{
    "trigger": true,
    "modules": [
        "add-to-group"
    ],
    "parentResource": "testohpen2387c676",
    "functionName": "testohpen2387c676PostConfirmation",
    "parentStack": "auth",
    "triggerEnvs": "[]",
    "triggerTemplate": "PostConfirmation.json.ejs",
    "roleName": "testohpen2387c676PostConfirmation",
    "skipEdit": true,
    "resourceName": "testohpen2387c676PostConfirmation"
}